([('api_modular.exe',
   'E:\\Proyecto-2.0\\flask_api\\build\\api_modular\\api_modular.exe',
   'EXECUTABLE'),
  ('api_modular.exe.manifest',
   'E:\\Proyecto-2.0\\flask_api\\build\\api_modular\\api_modular.exe.manifest',
   'BINARY'),
  ('VCRUNTIME140.dll',
   'c:\\users\\ezequiel\\appdata\\local\\programs\\python\\python36\\VCRUNTIME140.dll',
   'BINARY'),
  ('python36.dll',
   'c:\\users\\ezequiel\\appdata\\local\\programs\\python\\python36\\python36.dll',
   'BINARY'),
  ('pythoncom36.dll',
   'c:\\users\\ezequiel\\appdata\\local\\programs\\python\\python36\\lib\\site-packages\\pywin32_system32\\pythoncom36.dll',
   'BINARY'),
  ('pywintypes36.dll',
   'c:\\users\\ezequiel\\appdata\\local\\programs\\python\\python36\\lib\\site-packages\\pywin32_system32\\pywintypes36.dll',
   'BINARY'),
  ('_decimal',
   'c:\\users\\ezequiel\\appdata\\local\\programs\\python\\python36\\DLLs\\_decimal.pyd',
   'EXTENSION'),
  ('_ctypes',
   'c:\\users\\ezequiel\\appdata\\local\\programs\\python\\python36\\DLLs\\_ctypes.pyd',
   'EXTENSION'),
  ('_multiprocessing',
   'c:\\users\\ezequiel\\appdata\\local\\programs\\python\\python36\\DLLs\\_multiprocessing.pyd',
   'EXTENSION'),
  ('win32trace',
   'c:\\users\\ezequiel\\appdata\\local\\programs\\python\\python36\\lib\\site-packages\\win32\\win32trace.pyd',
   'EXTENSION'),
  ('win32ui',
   'c:\\users\\ezequiel\\appdata\\local\\programs\\python\\python36\\lib\\site-packages\\Pythonwin\\win32ui.pyd',
   'EXTENSION'),
  ('_win32sysloader',
   'c:\\users\\ezequiel\\appdata\\local\\programs\\python\\python36\\lib\\site-packages\\win32\\_win32sysloader.pyd',
   'EXTENSION'),
  ('win32api',
   'c:\\users\\ezequiel\\appdata\\local\\programs\\python\\python36\\lib\\site-packages\\win32\\win32api.pyd',
   'EXTENSION'),
  ('win32wnet',
   'c:\\users\\ezequiel\\appdata\\local\\programs\\python\\python36\\lib\\site-packages\\win32\\win32wnet.pyd',
   'EXTENSION'),
  ('win32com.shell.shell',
   'c:\\users\\ezequiel\\appdata\\local\\programs\\python\\python36\\lib\\site-packages\\win32comext\\shell\\shell.pyd',
   'EXTENSION'),
  ('_ssl',
   'c:\\users\\ezequiel\\appdata\\local\\programs\\python\\python36\\DLLs\\_ssl.pyd',
   'EXTENSION'),
  ('unicodedata',
   'c:\\users\\ezequiel\\appdata\\local\\programs\\python\\python36\\DLLs\\unicodedata.pyd',
   'EXTENSION'),
  ('pyexpat',
   'c:\\users\\ezequiel\\appdata\\local\\programs\\python\\python36\\DLLs\\pyexpat.pyd',
   'EXTENSION'),
  ('_hashlib',
   'c:\\users\\ezequiel\\appdata\\local\\programs\\python\\python36\\DLLs\\_hashlib.pyd',
   'EXTENSION'),
  ('_bz2',
   'c:\\users\\ezequiel\\appdata\\local\\programs\\python\\python36\\DLLs\\_bz2.pyd',
   'EXTENSION'),
  ('_lzma',
   'c:\\users\\ezequiel\\appdata\\local\\programs\\python\\python36\\DLLs\\_lzma.pyd',
   'EXTENSION'),
  ('_socket',
   'c:\\users\\ezequiel\\appdata\\local\\programs\\python\\python36\\DLLs\\_socket.pyd',
   'EXTENSION'),
  ('select',
   'c:\\users\\ezequiel\\appdata\\local\\programs\\python\\python36\\DLLs\\select.pyd',
   'EXTENSION'),
  ('_sqlite3',
   'c:\\users\\ezequiel\\appdata\\local\\programs\\python\\python36\\DLLs\\_sqlite3.pyd',
   'EXTENSION'),
  ('servicemanager',
   'c:\\users\\ezequiel\\appdata\\local\\programs\\python\\python36\\lib\\site-packages\\win32\\servicemanager.pyd',
   'EXTENSION'),
  ('win32evtlog',
   'c:\\users\\ezequiel\\appdata\\local\\programs\\python\\python36\\lib\\site-packages\\win32\\win32evtlog.pyd',
   'EXTENSION'),
  ('perfmon',
   'c:\\users\\ezequiel\\appdata\\local\\programs\\python\\python36\\lib\\site-packages\\win32\\perfmon.pyd',
   'EXTENSION'),
  ('win32service',
   'c:\\users\\ezequiel\\appdata\\local\\programs\\python\\python36\\lib\\site-packages\\win32\\win32service.pyd',
   'EXTENSION'),
  ('win32event',
   'c:\\users\\ezequiel\\appdata\\local\\programs\\python\\python36\\lib\\site-packages\\win32\\win32event.pyd',
   'EXTENSION'),
  ('_yaml',
   'c:\\users\\ezequiel\\appdata\\local\\programs\\python\\python36\\lib\\site-packages\\_yaml.cp36-win_amd64.pyd',
   'EXTENSION'),
  ('_asyncio',
   'c:\\users\\ezequiel\\appdata\\local\\programs\\python\\python36\\DLLs\\_asyncio.pyd',
   'EXTENSION'),
  ('_overlapped',
   'c:\\users\\ezequiel\\appdata\\local\\programs\\python\\python36\\DLLs\\_overlapped.pyd',
   'EXTENSION'),
  ('mfc140u.dll',
   'c:\\users\\ezequiel\\appdata\\local\\programs\\python\\python36\\lib\\site-packages\\Pythonwin\\mfc140u.dll',
   'BINARY'),
  ('sqlite3.dll',
   'c:\\users\\ezequiel\\appdata\\local\\programs\\python\\python36\\DLLs\\sqlite3.dll',
   'BINARY'),
  ('base_library.zip',
   'E:\\Proyecto-2.0\\flask_api\\build\\api_modular\\base_library.zip',
   'DATA'),
  ('lib2to3\\tests\\data\\README',
   'c:\\users\\ezequiel\\appdata\\local\\programs\\python\\python36\\lib\\lib2to3\\tests\\data\\README',
   'DATA'),
  ('jsonschema\\schemas\\draft3.json',
   'c:\\users\\ezequiel\\appdata\\local\\programs\\python\\python36\\lib\\site-packages\\jsonschema\\schemas\\draft3.json',
   'DATA'),
  ('lib2to3\\Grammar.txt',
   'c:\\users\\ezequiel\\appdata\\local\\programs\\python\\python36\\lib\\lib2to3\\Grammar.txt',
   'DATA'),
  ('jsonschema\\schemas\\draft4.json',
   'c:\\users\\ezequiel\\appdata\\local\\programs\\python\\python36\\lib\\site-packages\\jsonschema\\schemas\\draft4.json',
   'DATA'),
  ('Include\\pyconfig.h',
   'c:\\users\\ezequiel\\appdata\\local\\programs\\python\\python36\\Include\\pyconfig.h',
   'DATA'),
  ('lib2to3\\PatternGrammar.txt',
   'c:\\users\\ezequiel\\appdata\\local\\programs\\python\\python36\\lib\\lib2to3\\PatternGrammar.txt',
   'DATA'),
  ('lib2to3\\Grammar3.6.6.final.0.pickle',
   'c:\\users\\ezequiel\\appdata\\local\\programs\\python\\python36\\lib\\lib2to3\\Grammar3.6.6.final.0.pickle',
   'DATA'),
  ('lib2to3\\PatternGrammar3.6.6.final.0.pickle',
   'c:\\users\\ezequiel\\appdata\\local\\programs\\python\\python36\\lib\\lib2to3\\PatternGrammar3.6.6.final.0.pickle',
   'DATA')],)
