('E:\\Proyecto-2.0\\flask_api\\dist\\api_modular.exe',
 True,
 False,
 False,
 None,
 None,
 False,
 False,
 '<?xml version="1.0" encoding="UTF-8" standalone="yes"?><assembly manifestVersion="1.0" xmlns="urn:schemas-microsoft-com:asm.v1"><assemblyIdentity name="api_modular" processorArchitecture="amd64" type="win32" version="1.0.0.0"/><dependency><dependentAssembly><assemblyIdentity language="*" name="Microsoft.Windows.Common-Controls" processorArchitecture="*" publicKeyToken="6595b64144ccf1df" type="win32" version="6.0.0.0"/><compatibility xmlns="urn:schemas-microsoft-com:compatibility.v1"/></dependentAssembly></dependency><compatibility xmlns="urn:schemas-microsoft-com:compatibility.v1"><application><supportedOS Id="{e2011457-1546-43c5-a5fe-008deee3d3f0}"/><supportedOS Id="{35138b9a-5d96-4fbd-8e2d-a2440225f93a}"/><supportedOS Id="{4a2f28e3-53b9-4441-ba9c-d69d4a4a6e38}"/><supportedOS Id="{1f676c76-80e1-4239-95bb-83d0f6d0da78}"/><supportedOS Id="{8e0f7a12-bfb3-4fe8-b9a5-48fd50a15a9a}"/></application></compatibility></assembly>',
 True,
 'api_modular.pkg',
 [('PYZ-00.pyz',
   'E:\\Proyecto-2.0\\flask_api\\build\\api_modular\\PYZ-00.pyz',
   'PYZ'),
  ('struct',
   'c:\\users\\ezequiel\\appdata\\local\\programs\\python\\python36\\lib\\struct.pyo',
   'PYMODULE'),
  ('pyimod01_os_path',
   'c:\\users\\ezequiel\\appdata\\local\\programs\\python\\python36\\lib\\site-packages\\PyInstaller\\loader\\pyimod01_os_path.pyc',
   'PYMODULE'),
  ('pyimod02_archive',
   'c:\\users\\ezequiel\\appdata\\local\\programs\\python\\python36\\lib\\site-packages\\PyInstaller\\loader\\pyimod02_archive.pyc',
   'PYMODULE'),
  ('pyimod03_importers',
   'c:\\users\\ezequiel\\appdata\\local\\programs\\python\\python36\\lib\\site-packages\\PyInstaller\\loader\\pyimod03_importers.pyc',
   'PYMODULE'),
  ('pyiboot01_bootstrap',
   'c:\\users\\ezequiel\\appdata\\local\\programs\\python\\python36\\lib\\site-packages\\PyInstaller\\loader\\pyiboot01_bootstrap.py',
   'PYSOURCE'),
  ('pyi_rth_pkgres',
   'c:\\users\\ezequiel\\appdata\\local\\programs\\python\\python36\\lib\\site-packages\\PyInstaller\\loader\\rthooks\\pyi_rth_pkgres.py',
   'PYSOURCE'),
  ('pyi_rth_win32comgenpy',
   'c:\\users\\ezequiel\\appdata\\local\\programs\\python\\python36\\lib\\site-packages\\PyInstaller\\loader\\rthooks\\pyi_rth_win32comgenpy.py',
   'PYSOURCE'),
  ('pyi_rth_multiprocessing',
   'c:\\users\\ezequiel\\appdata\\local\\programs\\python\\python36\\lib\\site-packages\\PyInstaller\\loader\\rthooks\\pyi_rth_multiprocessing.py',
   'PYSOURCE'),
  ('api_modular', 'E:\\Proyecto-2.0\\flask_api\\api_modular.py', 'PYSOURCE'),
  ('python36.dll',
   'c:\\users\\ezequiel\\appdata\\local\\programs\\python\\python36\\python36.dll',
   'BINARY'),
  ('VCRUNTIME140.dll',
   'c:\\users\\ezequiel\\appdata\\local\\programs\\python\\python36\\VCRUNTIME140.dll',
   'BINARY'),
  ('pywintypes36.dll',
   'c:\\users\\ezequiel\\appdata\\local\\programs\\python\\python36\\lib\\site-packages\\pywin32_system32\\pywintypes36.dll',
   'BINARY'),
  ('pythoncom36.dll',
   'c:\\users\\ezequiel\\appdata\\local\\programs\\python\\python36\\lib\\site-packages\\pywin32_system32\\pythoncom36.dll',
   'BINARY'),
  ('_decimal',
   'c:\\users\\ezequiel\\appdata\\local\\programs\\python\\python36\\DLLs\\_decimal.pyd',
   'EXTENSION'),
  ('_ctypes',
   'c:\\users\\ezequiel\\appdata\\local\\programs\\python\\python36\\DLLs\\_ctypes.pyd',
   'EXTENSION'),
  ('_multiprocessing',
   'c:\\users\\ezequiel\\appdata\\local\\programs\\python\\python36\\DLLs\\_multiprocessing.pyd',
   'EXTENSION'),
  ('win32trace',
   'c:\\users\\ezequiel\\appdata\\local\\programs\\python\\python36\\lib\\site-packages\\win32\\win32trace.pyd',
   'EXTENSION'),
  ('win32ui',
   'c:\\users\\ezequiel\\appdata\\local\\programs\\python\\python36\\lib\\site-packages\\Pythonwin\\win32ui.pyd',
   'EXTENSION'),
  ('_win32sysloader',
   'c:\\users\\ezequiel\\appdata\\local\\programs\\python\\python36\\lib\\site-packages\\win32\\_win32sysloader.pyd',
   'EXTENSION'),
  ('win32api',
   'c:\\users\\ezequiel\\appdata\\local\\programs\\python\\python36\\lib\\site-packages\\win32\\win32api.pyd',
   'EXTENSION'),
  ('win32com.shell.shell',
   'c:\\users\\ezequiel\\appdata\\local\\programs\\python\\python36\\lib\\site-packages\\win32comext\\shell\\shell.pyd',
   'EXTENSION'),
  ('win32wnet',
   'c:\\users\\ezequiel\\appdata\\local\\programs\\python\\python36\\lib\\site-packages\\win32\\win32wnet.pyd',
   'EXTENSION'),
  ('_ssl',
   'c:\\users\\ezequiel\\appdata\\local\\programs\\python\\python36\\DLLs\\_ssl.pyd',
   'EXTENSION'),
  ('unicodedata',
   'c:\\users\\ezequiel\\appdata\\local\\programs\\python\\python36\\DLLs\\unicodedata.pyd',
   'EXTENSION'),
  ('pyexpat',
   'c:\\users\\ezequiel\\appdata\\local\\programs\\python\\python36\\DLLs\\pyexpat.pyd',
   'EXTENSION'),
  ('_hashlib',
   'c:\\users\\ezequiel\\appdata\\local\\programs\\python\\python36\\DLLs\\_hashlib.pyd',
   'EXTENSION'),
  ('_bz2',
   'c:\\users\\ezequiel\\appdata\\local\\programs\\python\\python36\\DLLs\\_bz2.pyd',
   'EXTENSION'),
  ('_lzma',
   'c:\\users\\ezequiel\\appdata\\local\\programs\\python\\python36\\DLLs\\_lzma.pyd',
   'EXTENSION'),
  ('_socket',
   'c:\\users\\ezequiel\\appdata\\local\\programs\\python\\python36\\DLLs\\_socket.pyd',
   'EXTENSION'),
  ('select',
   'c:\\users\\ezequiel\\appdata\\local\\programs\\python\\python36\\DLLs\\select.pyd',
   'EXTENSION'),
  ('_sqlite3',
   'c:\\users\\ezequiel\\appdata\\local\\programs\\python\\python36\\DLLs\\_sqlite3.pyd',
   'EXTENSION'),
  ('_mysql_connector',
   'c:\\users\\ezequiel\\appdata\\local\\programs\\python\\python36\\lib\\site-packages\\_mysql_connector.cp36-win_amd64.pyd',
   'EXTENSION'),
  ('servicemanager',
   'c:\\users\\ezequiel\\appdata\\local\\programs\\python\\python36\\lib\\site-packages\\win32\\servicemanager.pyd',
   'EXTENSION'),
  ('win32evtlog',
   'c:\\users\\ezequiel\\appdata\\local\\programs\\python\\python36\\lib\\site-packages\\win32\\win32evtlog.pyd',
   'EXTENSION'),
  ('perfmon',
   'c:\\users\\ezequiel\\appdata\\local\\programs\\python\\python36\\lib\\site-packages\\win32\\perfmon.pyd',
   'EXTENSION'),
  ('win32service',
   'c:\\users\\ezequiel\\appdata\\local\\programs\\python\\python36\\lib\\site-packages\\win32\\win32service.pyd',
   'EXTENSION'),
  ('win32event',
   'c:\\users\\ezequiel\\appdata\\local\\programs\\python\\python36\\lib\\site-packages\\win32\\win32event.pyd',
   'EXTENSION'),
  ('_yaml',
   'c:\\users\\ezequiel\\appdata\\local\\programs\\python\\python36\\lib\\site-packages\\_yaml.cp36-win_amd64.pyd',
   'EXTENSION'),
  ('_asyncio',
   'c:\\users\\ezequiel\\appdata\\local\\programs\\python\\python36\\DLLs\\_asyncio.pyd',
   'EXTENSION'),
  ('_overlapped',
   'c:\\users\\ezequiel\\appdata\\local\\programs\\python\\python36\\DLLs\\_overlapped.pyd',
   'EXTENSION'),
  ('mfc140u.dll',
   'c:\\users\\ezequiel\\appdata\\local\\programs\\python\\python36\\lib\\site-packages\\Pythonwin\\mfc140u.dll',
   'BINARY'),
  ('sqlite3.dll',
   'c:\\users\\ezequiel\\appdata\\local\\programs\\python\\python36\\DLLs\\sqlite3.dll',
   'BINARY'),
  ('libmysql.dll',
   'c:\\users\\ezequiel\\appdata\\local\\programs\\python\\python36\\lib\\site-packages\\libmysql.dll',
   'BINARY'),
  ('LIBEAY32.dll',
   'c:\\users\\ezequiel\\appdata\\local\\programs\\python\\python36\\lib\\site-packages\\LIBEAY32.dll',
   'BINARY'),
  ('SSLEAY32.dll',
   'c:\\users\\ezequiel\\appdata\\local\\programs\\python\\python36\\lib\\site-packages\\SSLEAY32.dll',
   'BINARY'),
  ('base_library.zip',
   'E:\\Proyecto-2.0\\flask_api\\build\\api_modular\\base_library.zip',
   'DATA'),
  ('lib2to3\\Grammar3.6.6.final.0.pickle',
   'c:\\users\\ezequiel\\appdata\\local\\programs\\python\\python36\\lib\\lib2to3\\Grammar3.6.6.final.0.pickle',
   'DATA'),
  ('lib2to3\\tests\\data\\README',
   'c:\\users\\ezequiel\\appdata\\local\\programs\\python\\python36\\lib\\lib2to3\\tests\\data\\README',
   'DATA'),
  ('jsonschema\\schemas\\draft3.json',
   'c:\\users\\ezequiel\\appdata\\local\\programs\\python\\python36\\lib\\site-packages\\jsonschema\\schemas\\draft3.json',
   'DATA'),
  ('Include\\pyconfig.h',
   'c:\\users\\ezequiel\\appdata\\local\\programs\\python\\python36\\Include\\pyconfig.h',
   'DATA'),
  ('lib2to3\\Grammar.txt',
   'c:\\users\\ezequiel\\appdata\\local\\programs\\python\\python36\\lib\\lib2to3\\Grammar.txt',
   'DATA'),
  ('lib2to3\\PatternGrammar3.6.6.final.0.pickle',
   'c:\\users\\ezequiel\\appdata\\local\\programs\\python\\python36\\lib\\lib2to3\\PatternGrammar3.6.6.final.0.pickle',
   'DATA'),
  ('jsonschema\\schemas\\draft4.json',
   'c:\\users\\ezequiel\\appdata\\local\\programs\\python\\python36\\lib\\site-packages\\jsonschema\\schemas\\draft4.json',
   'DATA'),
  ('lib2to3\\PatternGrammar.txt',
   'c:\\users\\ezequiel\\appdata\\local\\programs\\python\\python36\\lib\\lib2to3\\PatternGrammar.txt',
   'DATA'),
  ('api_modular.exe.manifest',
   'E:\\Proyecto-2.0\\flask_api\\build\\api_modular\\api_modular.exe.manifest',
   'BINARY'),
  ('pyi-windows-manifest-filename api_modular.exe.manifest', '', 'OPTION')],
 [],
 False,
 False,
 1539260987,
 [('run.exe',
   'c:\\users\\ezequiel\\appdata\\local\\programs\\python\\python36\\lib\\site-packages\\PyInstaller\\bootloader\\Windows-64bit\\run.exe',
   'EXECUTABLE')])
