('D:\\Proyecto-2.0\\flask_api\\build\\api_modular\\out00-PKG.pkg',
 {'BINARY': 1,
  'DATA': 1,
  'EXECUTABLE': 1,
  'EXTENSION': 1,
  'PYMODULE': 1,
  'PYSOURCE': 1,
  'PYZ': 0},
 [('out00-PYZ.pyz',
   'D:\\Proyecto-2.0\\flask_api\\build\\api_modular\\out00-PYZ.pyz',
   'PYZ'),
  ('struct',
   'c:\\users\\ezequiel\\appdata\\local\\programs\\python\\python36\\lib\\struct.pyo',
   'PYMODULE'),
  ('pyimod01_os_path',
   'c:\\users\\ezequiel\\appdata\\local\\programs\\python\\python36\\lib\\site-packages\\PyInstaller\\loader\\pyimod01_os_path.pyc',
   'PYMODULE'),
  ('pyimod02_archive',
   'c:\\users\\ezequiel\\appdata\\local\\programs\\python\\python36\\lib\\site-packages\\PyInstaller\\loader\\pyimod02_archive.pyc',
   'PYMODULE'),
  ('pyimod03_importers',
   'c:\\users\\ezequiel\\appdata\\local\\programs\\python\\python36\\lib\\site-packages\\PyInstaller\\loader\\pyimod03_importers.pyc',
   'PYMODULE'),
  ('pyiboot01_bootstrap',
   'c:\\users\\ezequiel\\appdata\\local\\programs\\python\\python36\\lib\\site-packages\\PyInstaller\\loader\\pyiboot01_bootstrap.py',
   'PYSOURCE'),
  ('pyi_rth_pkgres',
   'c:\\users\\ezequiel\\appdata\\local\\programs\\python\\python36\\lib\\site-packages\\PyInstaller\\loader\\rthooks\\pyi_rth_pkgres.py',
   'PYSOURCE'),
  ('pyi_rth_win32comgenpy',
   'c:\\users\\ezequiel\\appdata\\local\\programs\\python\\python36\\lib\\site-packages\\PyInstaller\\loader\\rthooks\\pyi_rth_win32comgenpy.py',
   'PYSOURCE'),
  ('pyi_rth_multiprocessing',
   'c:\\users\\ezequiel\\appdata\\local\\programs\\python\\python36\\lib\\site-packages\\PyInstaller\\loader\\rthooks\\pyi_rth_multiprocessing.py',
   'PYSOURCE'),
  ('api_modular', 'D:\\Proyecto-2.0\\flask_api\\api_modular.py', 'PYSOURCE'),
  ('api-ms-win-crt-runtime-l1-1-0.dll',
   'C:\\WINDOWS\\system32\\api-ms-win-crt-runtime-l1-1-0.dll',
   'BINARY'),
  ('api-ms-win-crt-locale-l1-1-0.dll',
   'C:\\WINDOWS\\system32\\api-ms-win-crt-locale-l1-1-0.dll',
   'BINARY'),
  ('api-ms-win-crt-heap-l1-1-0.dll',
   'C:\\WINDOWS\\system32\\api-ms-win-crt-heap-l1-1-0.dll',
   'BINARY'),
  ('api-ms-win-crt-stdio-l1-1-0.dll',
   'C:\\WINDOWS\\system32\\api-ms-win-crt-stdio-l1-1-0.dll',
   'BINARY'),
  ('VCRUNTIME140.dll',
   'c:\\users\\ezequiel\\appdata\\local\\programs\\python\\python36\\VCRUNTIME140.dll',
   'BINARY'),
  ('python36.dll',
   'c:\\users\\ezequiel\\appdata\\local\\programs\\python\\python36\\python36.dll',
   'BINARY'),
  ('api-ms-win-crt-math-l1-1-0.dll',
   'C:\\WINDOWS\\system32\\api-ms-win-crt-math-l1-1-0.dll',
   'BINARY'),
  ('ucrtbase.dll', 'C:\\WINDOWS\\system32\\ucrtbase.dll', 'BINARY'),
  ('api-ms-win-crt-string-l1-1-0.dll',
   'C:\\WINDOWS\\system32\\api-ms-win-crt-string-l1-1-0.dll',
   'BINARY'),
  ('api-ms-win-crt-convert-l1-1-0.dll',
   'C:\\WINDOWS\\system32\\api-ms-win-crt-convert-l1-1-0.dll',
   'BINARY'),
  ('api-ms-win-crt-time-l1-1-0.dll',
   'C:\\WINDOWS\\system32\\api-ms-win-crt-time-l1-1-0.dll',
   'BINARY'),
  ('api-ms-win-crt-environment-l1-1-0.dll',
   'C:\\WINDOWS\\system32\\api-ms-win-crt-environment-l1-1-0.dll',
   'BINARY'),
  ('api-ms-win-crt-filesystem-l1-1-0.dll',
   'C:\\WINDOWS\\system32\\api-ms-win-crt-filesystem-l1-1-0.dll',
   'BINARY'),
  ('api-ms-win-crt-conio-l1-1-0.dll',
   'C:\\WINDOWS\\system32\\api-ms-win-crt-conio-l1-1-0.dll',
   'BINARY'),
  ('api-ms-win-crt-process-l1-1-0.dll',
   'C:\\WINDOWS\\system32\\api-ms-win-crt-process-l1-1-0.dll',
   'BINARY'),
  ('pywintypes36.dll',
   'c:\\users\\ezequiel\\appdata\\local\\programs\\python\\python36\\lib\\site-packages\\pywin32_system32\\pywintypes36.dll',
   'BINARY'),
  ('pythoncom36.dll',
   'c:\\users\\ezequiel\\appdata\\local\\programs\\python\\python36\\lib\\site-packages\\pywin32_system32\\pythoncom36.dll',
   'BINARY'),
  ('_decimal',
   'c:\\users\\ezequiel\\appdata\\local\\programs\\python\\python36\\DLLs\\_decimal.pyd',
   'EXTENSION'),
  ('_ctypes',
   'c:\\users\\ezequiel\\appdata\\local\\programs\\python\\python36\\DLLs\\_ctypes.pyd',
   'EXTENSION'),
  ('_multiprocessing',
   'c:\\users\\ezequiel\\appdata\\local\\programs\\python\\python36\\DLLs\\_multiprocessing.pyd',
   'EXTENSION'),
  ('win32trace',
   'c:\\users\\ezequiel\\appdata\\local\\programs\\python\\python36\\lib\\site-packages\\win32\\win32trace.pyd',
   'EXTENSION'),
  ('win32ui',
   'c:\\users\\ezequiel\\appdata\\local\\programs\\python\\python36\\lib\\site-packages\\Pythonwin\\win32ui.pyd',
   'EXTENSION'),
  ('_win32sysloader',
   'c:\\users\\ezequiel\\appdata\\local\\programs\\python\\python36\\lib\\site-packages\\win32\\_win32sysloader.pyd',
   'EXTENSION'),
  ('win32api',
   'c:\\users\\ezequiel\\appdata\\local\\programs\\python\\python36\\lib\\site-packages\\win32\\win32api.pyd',
   'EXTENSION'),
  ('win32wnet',
   'c:\\users\\ezequiel\\appdata\\local\\programs\\python\\python36\\lib\\site-packages\\win32\\win32wnet.pyd',
   'EXTENSION'),
  ('win32com.shell.shell',
   'c:\\users\\ezequiel\\appdata\\local\\programs\\python\\python36\\lib\\site-packages\\win32comext\\shell\\shell.pyd',
   'EXTENSION'),
  ('_ssl',
   'c:\\users\\ezequiel\\appdata\\local\\programs\\python\\python36\\DLLs\\_ssl.pyd',
   'EXTENSION'),
  ('unicodedata',
   'c:\\users\\ezequiel\\appdata\\local\\programs\\python\\python36\\DLLs\\unicodedata.pyd',
   'EXTENSION'),
  ('pyexpat',
   'c:\\users\\ezequiel\\appdata\\local\\programs\\python\\python36\\DLLs\\pyexpat.pyd',
   'EXTENSION'),
  ('_hashlib',
   'c:\\users\\ezequiel\\appdata\\local\\programs\\python\\python36\\DLLs\\_hashlib.pyd',
   'EXTENSION'),
  ('_bz2',
   'c:\\users\\ezequiel\\appdata\\local\\programs\\python\\python36\\DLLs\\_bz2.pyd',
   'EXTENSION'),
  ('_lzma',
   'c:\\users\\ezequiel\\appdata\\local\\programs\\python\\python36\\DLLs\\_lzma.pyd',
   'EXTENSION'),
  ('_socket',
   'c:\\users\\ezequiel\\appdata\\local\\programs\\python\\python36\\DLLs\\_socket.pyd',
   'EXTENSION'),
  ('select',
   'c:\\users\\ezequiel\\appdata\\local\\programs\\python\\python36\\DLLs\\select.pyd',
   'EXTENSION'),
  ('_sqlite3',
   'c:\\users\\ezequiel\\appdata\\local\\programs\\python\\python36\\DLLs\\_sqlite3.pyd',
   'EXTENSION'),
  ('psycopg2._psycopg',
   'c:\\users\\ezequiel\\appdata\\local\\programs\\python\\python36\\lib\\site-packages\\psycopg2\\_psycopg.cp36-win_amd64.pyd',
   'EXTENSION'),
  ('_mysql',
   'c:\\users\\ezequiel\\appdata\\local\\programs\\python\\python36\\lib\\site-packages\\_mysql.cp36-win_amd64.pyd',
   'EXTENSION'),
  ('servicemanager',
   'c:\\users\\ezequiel\\appdata\\local\\programs\\python\\python36\\lib\\site-packages\\win32\\servicemanager.pyd',
   'EXTENSION'),
  ('win32evtlog',
   'c:\\users\\ezequiel\\appdata\\local\\programs\\python\\python36\\lib\\site-packages\\win32\\win32evtlog.pyd',
   'EXTENSION'),
  ('perfmon',
   'c:\\users\\ezequiel\\appdata\\local\\programs\\python\\python36\\lib\\site-packages\\win32\\perfmon.pyd',
   'EXTENSION'),
  ('win32service',
   'c:\\users\\ezequiel\\appdata\\local\\programs\\python\\python36\\lib\\site-packages\\win32\\win32service.pyd',
   'EXTENSION'),
  ('win32event',
   'c:\\users\\ezequiel\\appdata\\local\\programs\\python\\python36\\lib\\site-packages\\win32\\win32event.pyd',
   'EXTENSION'),
  ('_yaml',
   'c:\\users\\ezequiel\\appdata\\local\\programs\\python\\python36\\lib\\site-packages\\_yaml.cp36-win_amd64.pyd',
   'EXTENSION'),
  ('_asyncio',
   'c:\\users\\ezequiel\\appdata\\local\\programs\\python\\python36\\DLLs\\_asyncio.pyd',
   'EXTENSION'),
  ('_overlapped',
   'c:\\users\\ezequiel\\appdata\\local\\programs\\python\\python36\\DLLs\\_overlapped.pyd',
   'EXTENSION'),
  ('api-ms-win-crt-utility-l1-1-0.dll',
   'C:\\WINDOWS\\system32\\api-ms-win-crt-utility-l1-1-0.dll',
   'BINARY'),
  ('mfc140u.dll',
   'c:\\users\\ezequiel\\appdata\\local\\programs\\python\\python36\\lib\\site-packages\\Pythonwin\\mfc140u.dll',
   'BINARY'),
  ('sqlite3.dll',
   'c:\\users\\ezequiel\\appdata\\local\\programs\\python\\python36\\DLLs\\sqlite3.dll',
   'BINARY'),
  ('api-ms-win-crt-multibyte-l1-1-0.dll',
   'C:\\WINDOWS\\system32\\api-ms-win-crt-multibyte-l1-1-0.dll',
   'BINARY'),
  ('base_library.zip',
   'D:\\Proyecto-2.0\\flask_api\\build\\api_modular\\base_library.zip',
   'DATA'),
  ('lib2to3\\Grammar.txt',
   'c:\\users\\ezequiel\\appdata\\local\\programs\\python\\python36\\lib\\lib2to3\\Grammar.txt',
   'DATA'),
  ('lib2to3\\PatternGrammar.txt',
   'c:\\users\\ezequiel\\appdata\\local\\programs\\python\\python36\\lib\\lib2to3\\PatternGrammar.txt',
   'DATA'),
  ('jsonschema\\schemas\\draft3.json',
   'c:\\users\\ezequiel\\appdata\\local\\programs\\python\\python36\\lib\\site-packages\\jsonschema\\schemas\\draft3.json',
   'DATA'),
  ('jsonschema\\schemas\\draft4.json',
   'c:\\users\\ezequiel\\appdata\\local\\programs\\python\\python36\\lib\\site-packages\\jsonschema\\schemas\\draft4.json',
   'DATA'),
  ('Include\\pyconfig.h',
   'c:\\users\\ezequiel\\appdata\\local\\programs\\python\\python36\\Include\\pyconfig.h',
   'DATA'),
  ('lib2to3\\tests\\data\\README',
   'c:\\users\\ezequiel\\appdata\\local\\programs\\python\\python36\\lib\\lib2to3\\tests\\data\\README',
   'DATA'),
  ('lib2to3\\Grammar3.6.6.final.0.pickle',
   'c:\\users\\ezequiel\\appdata\\local\\programs\\python\\python36\\lib\\lib2to3\\Grammar3.6.6.final.0.pickle',
   'DATA'),
  ('lib2to3\\PatternGrammar3.6.6.final.0.pickle',
   'c:\\users\\ezequiel\\appdata\\local\\programs\\python\\python36\\lib\\lib2to3\\PatternGrammar3.6.6.final.0.pickle',
   'DATA'),
  ('api_modular.exe.manifest',
   'D:\\Proyecto-2.0\\flask_api\\build\\api_modular\\api_modular.exe.manifest',
   'BINARY'),
  ('pyi-windows-manifest-filename api_modular.exe.manifest', '', 'OPTION')],
 False,
 False,
 False)
